for (var i = 0; i < colors.length; i++) {
    console.log(colors[i]);
    color = colors[i];
}

for color in colors:
	print(color)

for i in range(len(colors)):
    print(colors[i])

presidents = ['Есльцин', 'Putin', 'Медведев', 'Putin', 'Putin']

for num, name in enumerate(presidents, start=1):
    print("President {}: {}".format(num, name))

enumerate(presidents, start=1)
[(1,'Есльцин'), (2,'Putin'), (3,'Медведев'), (4,'Putin'), (5,'Putin')]

enumerate(presidents)
[(0,'Есльцин'), (1,'Putin'), (2,'Медведев'), (3,'Putin'), (4,'Putin')]

colors = ["red", "green", "blue", "purple"]
ratios = [0.2, 0.3, 0.1, 0.4]
for color, ratio in zip(colors, ratios):
    print("{}% {}".format(ratio * 100, color))

qubs_list = [
  [0,1,0], 
  [0,0,0], 
  [0,0,1]
]
qubs_list[y][x] - значние элемента x, y


 zip(colors, ratios)
[("red",0.2), ("green",0.3), "blue".., "purple"]

(x - 1, y + 1), (x , y + 1), (x + 1, y + 1), (x - 1, y), (x + 1, y), (x - 1, y - 1), (x, y - 1), (x + 1, y - 1)  